ComputerArchitecture/computer.vcd
$date
	Thu Jul  4 18:54:02 2019
$end
$version
	Icarus Verilog
$end
$timescale
	1s
$end
$scope module tcomputer $end
$var reg 1 ! clk $end
$var reg 1 " rstd $end
$scope module computer_body $end
$var wire 1 ! clk $end
$var wire 1 " rstd $end
$var wire 5 # wra [4:0] $end
$var wire 32 $ result [31:0] $end
$var wire 32 % reg2 [31:0] $end
$var wire 32 & reg1 [31:0] $end
$var wire 32 ' pc [31:0] $end
$var wire 32 ( nextpc [31:0] $end
$var wire 32 ) ins [31:0] $end
$scope module execute_body $end
$var wire 1 ! clk $end
$var wire 4 * wren [3:0] $end
$var wire 5 + wra [4:0] $end
$var wire 5 , shift [4:0] $end
$var wire 32 - result [31:0] $end
$var wire 32 . reg2 [31:0] $end
$var wire 32 / reg1 [31:0] $end
$var wire 32 0 pc [31:0] $end
$var wire 5 1 operation [4:0] $end
$var wire 32 2 operand2 [31:0] $end
$var wire 6 3 op [5:0] $end
$var wire 32 4 nonbranch [31:0] $end
$var wire 32 5 nextpc [31:0] $end
$var wire 32 6 mem_address [31:0] $end
$var wire 32 7 ins [31:0] $end
$var wire 32 8 dpl_imm [31:0] $end
$var wire 32 9 dm_r_data [31:0] $end
$var wire 32 : branch [31:0] $end
$var wire 32 ; alu_result [31:0] $end
$var wire 26 < addr [25:0] $end
$scope function alu $end
$var reg 32 = alu [31:0] $end
$var reg 32 > operand1 [31:0] $end
$var reg 32 ? operand2 [31:0] $end
$var reg 5 @ opr [4:0] $end
$var reg 5 A shift [4:0] $end
$upscope $end
$scope function calc $end
$var reg 32 B alu_result [31:0] $end
$var reg 32 C calc [31:0] $end
$var reg 32 D dm_r_data [31:0] $end
$var reg 32 E dpl_imm [31:0] $end
$var reg 6 F op [5:0] $end
$var reg 32 G pc [31:0] $end
$upscope $end
$scope function npc $end
$var reg 32 H addr [31:0] $end
$var reg 32 I branch [31:0] $end
$var reg 32 J nonbranch [31:0] $end
$var reg 32 K npc [31:0] $end
$var reg 6 L op [5:0] $end
$var reg 32 M reg1 [31:0] $end
$var reg 32 N reg2 [31:0] $end
$upscope $end
$scope function opr_gen $end
$var reg 6 O op [5:0] $end
$var reg 5 P operation [4:0] $end
$var reg 5 Q opr_gen [4:0] $end
$upscope $end
$scope function wreg $end
$var reg 6 R op [5:0] $end
$var reg 5 S rd [4:0] $end
$var reg 5 T rs [4:0] $end
$var reg 5 U rt [4:0] $end
$var reg 5 V wreg [4:0] $end
$upscope $end
$scope function wrengen $end
$var reg 6 W op [5:0] $end
$var reg 4 X wrengen [3:0] $end
$upscope $end
$scope module data_mem_body0 $end
$var wire 8 Y address [7:0] $end
$var wire 1 ! clk $end
$var wire 8 Z read_data [7:0] $end
$var wire 1 [ wren $end
$var wire 8 \ write_data [7:0] $end
$upscope $end
$scope module data_mem_body1 $end
$var wire 8 ] address [7:0] $end
$var wire 1 ! clk $end
$var wire 8 ^ read_data [7:0] $end
$var wire 1 _ wren $end
$var wire 8 ` write_data [7:0] $end
$upscope $end
$scope module data_mem_body2 $end
$var wire 8 a address [7:0] $end
$var wire 1 ! clk $end
$var wire 8 b read_data [7:0] $end
$var wire 1 c wren $end
$var wire 8 d write_data [7:0] $end
$upscope $end
$scope module data_mem_body3 $end
$var wire 8 e address [7:0] $end
$var wire 1 ! clk $end
$var wire 8 f read_data [7:0] $end
$var wire 1 g wren $end
$var wire 8 h write_data [7:0] $end
$upscope $end
$upscope $end
$scope module fetch_body $end
$var wire 32 i ins [31:0] $end
$var wire 8 j pc [7:0] $end
$upscope $end
$scope module rf_body $end
$var wire 1 ! clk $end
$var wire 5 k ra1 [4:0] $end
$var wire 5 l ra2 [4:0] $end
$var wire 32 m rr1 [31:0] $end
$var wire 32 n rr2 [31:0] $end
$var wire 1 " rstd $end
$var wire 5 o wa [4:0] $end
$var wire 32 p wr [31:0] $end
$var wire 1 q wren $end
$upscope $end
$scope module writeback_body $end
$var wire 1 ! clk $end
$var wire 32 r nextpc [31:0] $end
$var wire 1 " rstd $end
$var reg 32 s pc [31:0] $end
$upscope $end
$upscope $end
$upscope $end
$enddefinitions $end
#0
$dumpvars
bx s
bx r
1q
b11111111111111111111111111111111 p
b0 o
bx n
bx m
bx l
bx k
bx j
bx i
bx h
1g
bx f
bx e
bx d
1c
bx b
bx a
bx `
1_
bx ^
bx ]
bx \
1[
bx Z
bx Y
b1111 X
bx W
b0 V
bx U
bx T
bx S
bx R
b11111 Q
bx P
bx O
bx N
bx M
bx L
bx K
bx J
bx I
b0xxxxxxxxxxxxxxxxxxxxxxxxxx H
bx G
bx F
bx E
bx D
b11111111111111111111111111111111 C
b11111111111111111111111111111111 B
bx A
b11111 @
bx ?
bx >
b11111111111111111111111111111111 =
bx <
b11111111111111111111111111111111 ;
bx :
bx 9
bx 8
bx 7
b0xxxxxxxxxxxxxxxxxxxxxxxxxxxxxx 6
bx 5
bx 4
bx 3
bx 2
bx 1
bx 0
bx /
bx .
b11111111111111111111111111111111 -
bx ,
b0 +
b1111 *
bx )
bx (
bx '
bx &
bx %
b11111111111111111111111111111111 $
b0 #
1"
0!
$end
#10
b1010 $
b1010 -
b1010 p
b1010 C
b1010 B
b10 Y
b10 ]
b10 a
b10 e
b1010 ;
b1010 =
b1010 ?
b0 @
b10 6
b1010 2
b0 Q
b1010 P
b1 O
b1 W
0q
b1 #
b1 +
b1 o
b1 V
b0 S
b1 U
b0 T
b1 R
b1010 E
b1 F
b10000000000001010 H
b1011 I
b0 M
b1 L
b0 >
b0 A
b10000000000001010 <
b1011 :
b1010 8
b1010 1
b0 ,
b1 3
b1 l
b0 &
b0 /
b0 m
b0 k
b1 (
b1 5
b1 r
b1 K
b1 J
b0 G
b100000000010000000000001010 )
b100000000010000000000001010 7
b100000000010000000000001010 i
b0 j
b1 4
b0 '
b0 0
b0 s
0"
#20
1"
#50
b1 $
b1 -
b1 p
b1 C
b1 B
b1 ;
b1 =
b1 ?
b0 Y
b0 ]
b0 a
b0 e
b10 #
b10 +
b10 o
b10 V
b10 U
b1 2
b0 6
b1 E
b1 P
b100000000000000001 H
b100000000000000001 <
b1 8
b1 1
b10 l
bx h
bx d
bx `
bx \
b10 (
b10 5
b10 r
b10 K
b10 J
b11 I
bx N
b1 G
b100000000100000000000000001 )
b100000000100000000000000001 7
b100000000100000000000000001 i
b1 j
bx %
bx .
bx n
b11 :
b10 4
b1 '
b1 0
b1 s
1!
#100
0!
#150
b0 $
b0 -
b0 p
b0 C
b0 B
b0 ;
b0 =
b0 ?
b11 #
b11 +
b11 o
b11 V
b11 U
b0 2
b0 E
b0 P
b110000000000000000 H
b110000000000000000 <
b0 8
b0 1
b11 l
b10 G
b100000000110000000000000000 )
b100000000110000000000000000 7
b100000000110000000000000000 i
b10 j
b11 (
b11 5
b11 r
b11 K
b11 J
b11 I
bx N
bx h
bx d
bx `
bx \
b11 :
b11 4
b10 '
b10 0
b10 s
bx %
bx .
bx n
1!
#200
0!
#250
b10 Y
b10 ]
b10 a
b10 e
b0 O
b0 W
b11 S
b1 T
b0 R
b1010 $
b1010 -
b1010 p
b1010 C
b1100000000000 E
b1010 B
b0 F
b1000110001100000000000 H
b1010 M
b0 L
b11000000010 6
b1010 ;
b1010 =
b1010 >
b1000110001100000000000 <
b1100000000000 8
b0 3
b1010 &
b1010 /
b1010 m
b1 k
b0 h
b0 d
b0 `
b0 \
b100 (
b100 5
b100 r
b100 K
b100 J
b1100000000100 I
b0 N
b11 G
b1000110001100000000000 )
b1000110001100000000000 7
b1000110001100000000000 i
b11 j
b0 %
b0 .
b0 n
b1100000000100 :
b100 4
b11 '
b11 0
b11 s
1!
#300
0!
#350
b10 6
b11111 A
b10 @
b10 Q
b11110 P
b100100 O
b100100 W
b1 #
b1 +
b1 o
b1 V
b11111 S
b10 U
b100100 R
b1000101111111111111110 H
b100100 L
b1001 $
b1001 -
b1001 p
b1001 C
b11111111111111111111111111111110 E
b1001 B
b100100 F
b1000101111111111111110 <
b11111111111111111111111111111110 8
b11110 1
b11111 ,
b100100 3
b10 l
b1001 ;
b1001 =
b1 ?
b100 G
b10010000001000101111111111111110 )
b10010000001000101111111111111110 7
b10010000001000101111111111111110 i
b100 j
b11 (
b11 5
b11 r
b11 K
b101 J
b11 I
b1 N
b1 \
b1 2
b11 :
b101 4
b100 '
b100 0
b100 s
b1 %
b1 .
b1 n
1!
#400
0!
#450
b1010 ?
b0 A
b0 @
b0 Q
b0 P
b0 O
b0 W
b11 #
b11 +
b11 o
b11 V
b11 S
b11 U
b0 R
b1000110001100000000000 H
b1010 N
b0 L
b1010 \
b1010 2
b10 Y
b10 ]
b10 a
b10 e
b10011 $
b10011 -
b10011 p
b10011 C
b1100000000000 E
b10011 B
b0 F
b1000110001100000000000 <
b1100000000000 8
b0 1
b0 ,
b0 3
b1010 %
b1010 .
b1010 n
b11 l
b11000000010 6
b10011 ;
b10011 =
b1001 >
b100 (
b100 5
b100 r
b100 K
b100 J
b1100000000100 I
b1001 M
b11 G
b1000110001100000000000 )
b1000110001100000000000 7
b1000110001100000000000 i
b11 j
b1001 &
b1001 /
b1001 m
b1100000000100 :
b100 4
b11 '
b11 0
b11 s
1!
#500
0!
#550
b1 Y
b1 ]
b1 a
b1 e
b1 6
b11111 A
b10 @
b10 Q
b11110 P
b100100 O
b100100 W
b1 #
b1 +
b1 o
b1 V
b11111 S
b10 U
b100100 R
b1000101111111111111110 H
b100100 L
b1000 $
b1000 -
b1000 p
b1000 C
b11111111111111111111111111111110 E
b1000 B
b100100 F
b1000101111111111111110 <
b11111111111111111111111111111110 8
b11110 1
b11111 ,
b100100 3
b10 l
b1000 ;
b1000 =
b1 ?
b100 G
b10010000001000101111111111111110 )
b10010000001000101111111111111110 7
b10010000001000101111111111111110 i
b100 j
b11 (
b11 5
b11 r
b11 K
b101 J
b11 I
b1 N
b1 \
b1 2
b11 :
b101 4
b100 '
b100 0
b100 s
b1 %
b1 .
b1 n
1!
#600
0!
#650
b10 Y
b10 ]
b10 a
b10 e
b11000000010 6
b10011 ?
b0 A
b0 @
b0 Q
b0 P
b0 O
b0 W
b11 #
b11 +
b11 o
b11 V
b11 S
b11 U
b0 R
b1000110001100000000000 H
b10011 N
b0 L
b10011 \
b10011 2
b11011 $
b11011 -
b11011 p
b11011 C
b1100000000000 E
b11011 B
b0 F
b1000110001100000000000 <
b1100000000000 8
b0 1
b0 ,
b0 3
b10011 %
b10011 .
b10011 n
b11 l
b11011 ;
b11011 =
b1000 >
b100 (
b100 5
b100 r
b100 K
b100 J
b1100000000100 I
b1000 M
b11 G
b1000110001100000000000 )
b1000110001100000000000 7
b1000110001100000000000 i
b11 j
b1000 &
b1000 /
b1000 m
b1100000000100 :
b100 4
b11 '
b11 0
b11 s
1!
#700
0!
#750
b1 Y
b1 ]
b1 a
b1 e
b1 6
b11111 A
b10 @
b10 Q
b11110 P
b100100 O
b100100 W
b1 #
b1 +
b1 o
b1 V
b11111 S
b10 U
b100100 R
b1000101111111111111110 H
b100100 L
b111 $
b111 -
b111 p
b111 C
b11111111111111111111111111111110 E
b111 B
b100100 F
b1000101111111111111110 <
b11111111111111111111111111111110 8
b11110 1
b11111 ,
b100100 3
b10 l
b111 ;
b111 =
b1 ?
b100 G
b10010000001000101111111111111110 )
b10010000001000101111111111111110 7
b10010000001000101111111111111110 i
b100 j
b11 (
b11 5
b11 r
b11 K
b101 J
b11 I
b1 N
b1 \
b1 2
b11 :
b101 4
b100 '
b100 0
b100 s
b1 %
b1 .
b1 n
1!
#800
0!
#850
b11000000001 6
b11011 ?
b0 A
b0 @
b0 Q
b0 P
b0 O
b0 W
b11 #
b11 +
b11 o
b11 V
b11 S
b11 U
b0 R
b1000110001100000000000 H
b11011 N
b0 L
b11011 \
b11011 2
b100010 $
b100010 -
b100010 p
b100010 C
b1100000000000 E
b100010 B
b0 F
b1000110001100000000000 <
b1100000000000 8
b0 1
b0 ,
b0 3
b11011 %
b11011 .
b11011 n
b11 l
b100010 ;
b100010 =
b111 >
b100 (
b100 5
b100 r
b100 K
b100 J
b1100000000100 I
b111 M
b11 G
b1000110001100000000000 )
b1000110001100000000000 7
b1000110001100000000000 i
b11 j
b111 &
b111 /
b111 m
b1100000000100 :
b100 4
b11 '
b11 0
b11 s
1!
#900
0!
#950
b1 6
b11111 A
b10 @
b10 Q
b11110 P
b100100 O
b100100 W
b1 #
b1 +
b1 o
b1 V
b11111 S
b10 U
b100100 R
b1000101111111111111110 H
b100100 L
b110 $
b110 -
b110 p
b110 C
b11111111111111111111111111111110 E
b110 B
b100100 F
b1000101111111111111110 <
b11111111111111111111111111111110 8
b11110 1
b11111 ,
b100100 3
b10 l
b110 ;
b110 =
b1 ?
b100 G
b10010000001000101111111111111110 )
b10010000001000101111111111111110 7
b10010000001000101111111111111110 i
b100 j
b11 (
b11 5
b11 r
b11 K
b101 J
b11 I
b1 N
b1 \
b1 2
b11 :
b101 4
b100 '
b100 0
b100 s
b1 %
b1 .
b1 n
1!
#1000
0!
#1050
b11000000001 6
b100010 ?
b0 A
b0 @
b0 Q
b0 P
b0 O
b0 W
b11 #
b11 +
b11 o
b11 V
b11 S
b11 U
b0 R
b1000110001100000000000 H
b100010 N
b0 L
b100010 \
b100010 2
b101000 $
b101000 -
b101000 p
b101000 C
b1100000000000 E
b101000 B
b0 F
b1000110001100000000000 <
b1100000000000 8
b0 1
b0 ,
b0 3
b100010 %
b100010 .
b100010 n
b11 l
b101000 ;
b101000 =
b110 >
b100 (
b100 5
b100 r
b100 K
b100 J
b1100000000100 I
b110 M
b11 G
b1000110001100000000000 )
b1000110001100000000000 7
b1000110001100000000000 i
b11 j
b110 &
b110 /
b110 m
b1100000000100 :
b100 4
b11 '
b11 0
b11 s
1!
#1100
0!
#1150
b1 6
b11111 A
b10 @
b10 Q
b11110 P
b100100 O
b100100 W
b1 #
b1 +
b1 o
b1 V
b11111 S
b10 U
b100100 R
b1000101111111111111110 H
b100100 L
b101 $
b101 -
b101 p
b101 C
b11111111111111111111111111111110 E
b101 B
b100100 F
b1000101111111111111110 <
b11111111111111111111111111111110 8
b11110 1
b11111 ,
b100100 3
b10 l
b101 ;
b101 =
b1 ?
b100 G
b10010000001000101111111111111110 )
b10010000001000101111111111111110 7
b10010000001000101111111111111110 i
b100 j
b11 (
b11 5
b11 r
b11 K
b101 J
b11 I
b1 N
b1 \
b1 2
b11 :
b101 4
b100 '
b100 0
b100 s
b1 %
b1 .
b1 n
1!
#1200
0!
#1250
b101000 ?
b0 A
b0 @
b0 Q
b0 P
b0 O
b0 W
b11 #
b11 +
b11 o
b11 V
b11 S
b11 U
b0 R
b1000110001100000000000 H
b101000 N
b0 L
b101000 \
b101000 2
b1 Y
b1 ]
b1 a
b1 e
b101101 $
b101101 -
b101101 p
b101101 C
b1100000000000 E
b101101 B
b0 F
b1000110001100000000000 <
b1100000000000 8
b0 1
b0 ,
b0 3
b101000 %
b101000 .
b101000 n
b11 l
b11000000001 6
b101101 ;
b101101 =
b101 >
b100 (
b100 5
b100 r
b100 K
b100 J
b1100000000100 I
b101 M
b11 G
b1000110001100000000000 )
b1000110001100000000000 7
b1000110001100000000000 i
b11 j
b101 &
b101 /
b101 m
b1100000000100 :
b100 4
b11 '
b11 0
b11 s
1!
#1300
0!
#1350
b0 Y
b0 ]
b0 a
b0 e
b0 6
b11111 A
b10 @
b10 Q
b11110 P
b100100 O
b100100 W
b1 #
b1 +
b1 o
b1 V
b11111 S
b10 U
b100100 R
b1000101111111111111110 H
b100100 L
b100 $
b100 -
b100 p
b100 C
b11111111111111111111111111111110 E
b100 B
b100100 F
b1000101111111111111110 <
b11111111111111111111111111111110 8
b11110 1
b11111 ,
b100100 3
b10 l
b100 ;
b100 =
b1 ?
b100 G
b10010000001000101111111111111110 )
b10010000001000101111111111111110 7
b10010000001000101111111111111110 i
b100 j
b11 (
b11 5
b11 r
b11 K
b101 J
b11 I
b1 N
b1 \
b1 2
b11 :
b101 4
b100 '
b100 0
b100 s
b1 %
b1 .
b1 n
1!
#1400
0!
#1450
b1 Y
b1 ]
b1 a
b1 e
b11000000001 6
b101101 ?
b0 A
b0 @
b0 Q
b0 P
b0 O
b0 W
b11 #
b11 +
b11 o
b11 V
b11 S
b11 U
b0 R
b1000110001100000000000 H
b101101 N
b0 L
b101101 \
b101101 2
b110001 $
b110001 -
b110001 p
b110001 C
b1100000000000 E
b110001 B
b0 F
b1000110001100000000000 <
b1100000000000 8
b0 1
b0 ,
b0 3
b101101 %
b101101 .
b101101 n
b11 l
b110001 ;
b110001 =
b100 >
b100 (
b100 5
b100 r
b100 K
b100 J
b1100000000100 I
b100 M
b11 G
b1000110001100000000000 )
b1000110001100000000000 7
b1000110001100000000000 i
b11 j
b100 &
b100 /
b100 m
b1100000000100 :
b100 4
b11 '
b11 0
b11 s
1!
#1500
0!
#1550
b0 Y
b0 ]
b0 a
b0 e
b0 6
b11111 A
b10 @
b10 Q
b11110 P
b100100 O
b100100 W
b1 #
b1 +
b1 o
b1 V
b11111 S
b10 U
b100100 R
b1000101111111111111110 H
b100100 L
b11 $
b11 -
b11 p
b11 C
b11111111111111111111111111111110 E
b11 B
b100100 F
b1000101111111111111110 <
b11111111111111111111111111111110 8
b11110 1
b11111 ,
b100100 3
b10 l
b11 ;
b11 =
b1 ?
b100 G
b10010000001000101111111111111110 )
b10010000001000101111111111111110 7
b10010000001000101111111111111110 i
b100 j
b11 (
b11 5
b11 r
b11 K
b101 J
b11 I
b1 N
b1 \
b1 2
b11 :
b101 4
b100 '
b100 0
b100 s
b1 %
b1 .
b1 n
1!
#1600
0!
#1650
b11000000000 6
b110001 ?
b0 A
b0 @
b0 Q
b0 P
b0 O
b0 W
b11 #
b11 +
b11 o
b11 V
b11 S
b11 U
b0 R
b1000110001100000000000 H
b110001 N
b0 L
b110001 \
b110001 2
b110100 $
b110100 -
b110100 p
b110100 C
b1100000000000 E
b110100 B
b0 F
b1000110001100000000000 <
b1100000000000 8
b0 1
b0 ,
b0 3
b110001 %
b110001 .
b110001 n
b11 l
b110100 ;
b110100 =
b11 >
b100 (
b100 5
b100 r
b100 K
b100 J
b1100000000100 I
b11 M
b11 G
b1000110001100000000000 )
b1000110001100000000000 7
b1000110001100000000000 i
b11 j
b11 &
b11 /
b11 m
b1100000000100 :
b100 4
b11 '
b11 0
b11 s
1!
#1700
0!
#1750
b0 6
b11111 A
b10 @
b10 Q
b11110 P
b100100 O
b100100 W
b1 #
b1 +
b1 o
b1 V
b11111 S
b10 U
b100100 R
b1000101111111111111110 H
b100100 L
b10 $
b10 -
b10 p
b10 C
b11111111111111111111111111111110 E
b10 B
b100100 F
b1000101111111111111110 <
b11111111111111111111111111111110 8
b11110 1
b11111 ,
b100100 3
b10 l
b10 ;
b10 =
b1 ?
b100 G
b10010000001000101111111111111110 )
b10010000001000101111111111111110 7
b10010000001000101111111111111110 i
b100 j
b11 (
b11 5
b11 r
b11 K
b101 J
b11 I
b1 N
b1 \
b1 2
b11 :
b101 4
b100 '
b100 0
b100 s
b1 %
b1 .
b1 n
1!
#1800
0!
#1850
b11000000000 6
b110100 ?
b0 A
b0 @
b0 Q
b0 P
b0 O
b0 W
b11 #
b11 +
b11 o
b11 V
b11 S
b11 U
b0 R
b1000110001100000000000 H
b110100 N
b0 L
b110100 \
b110100 2
b110110 $
b110110 -
b110110 p
b110110 C
b1100000000000 E
b110110 B
b0 F
b1000110001100000000000 <
b1100000000000 8
b0 1
b0 ,
b0 3
b110100 %
b110100 .
b110100 n
b11 l
b110110 ;
b110110 =
b10 >
b100 (
b100 5
b100 r
b100 K
b100 J
b1100000000100 I
b10 M
b11 G
b1000110001100000000000 )
b1000110001100000000000 7
b1000110001100000000000 i
b11 j
b10 &
b10 /
b10 m
b1100000000100 :
b100 4
b11 '
b11 0
b11 s
1!
#1900
0!
#1950
b0 6
b11111 A
b10 @
b10 Q
b11110 P
b100100 O
b100100 W
b1 #
b1 +
b1 o
b1 V
b11111 S
b10 U
b100100 R
b1000101111111111111110 H
b100100 L
b1 $
b1 -
b1 p
b1 C
b11111111111111111111111111111110 E
b1 B
b100100 F
b1000101111111111111110 <
b11111111111111111111111111111110 8
b11110 1
b11111 ,
b100100 3
b10 l
b1 ;
b1 =
b1 ?
b100 G
b10010000001000101111111111111110 )
b10010000001000101111111111111110 7
b10010000001000101111111111111110 i
b100 j
b11 (
b11 5
b11 r
b11 K
b101 J
b11 I
b1 N
b1 \
b1 2
b11 :
b101 4
b100 '
b100 0
b100 s
b1 %
b1 .
b1 n
1!
#2000
0!
#2050
b110110 ?
b0 A
b0 @
b0 Q
b0 P
b0 O
b0 W
b11 #
b11 +
b11 o
b11 V
b11 S
b11 U
b0 R
b1000110001100000000000 H
b110110 N
b0 L
b110110 \
b110110 2
b0 Y
b0 ]
b0 a
b0 e
b110111 $
b110111 -
b110111 p
b110111 C
b1100000000000 E
b110111 B
b0 F
b1000110001100000000000 <
b1100000000000 8
b0 1
b0 ,
b0 3
b110110 %
b110110 .
b110110 n
b11 l
b11000000000 6
b110111 ;
b110111 =
b1 >
b100 (
b100 5
b100 r
b100 K
b100 J
b1100000000100 I
b1 M
b11 G
b1000110001100000000000 )
b1000110001100000000000 7
b1000110001100000000000 i
b11 j
b1 &
b1 /
b1 m
b1100000000100 :
b100 4
b11 '
b11 0
b11 s
1!
#2100
0!
#2150
b11111111 Y
b11111111 ]
b11111111 a
b11111111 e
b111111111111111111111111111111 6
b11111 A
b10 @
b10 Q
b11110 P
b100100 O
b100100 W
b1 #
b1 +
b1 o
b1 V
b11111 S
b10 U
b100100 R
b1000101111111111111110 H
b100100 L
b0 $
b0 -
b0 p
b0 C
b11111111111111111111111111111110 E
b0 B
b100100 F
b1000101111111111111110 <
b11111111111111111111111111111110 8
b11110 1
b11111 ,
b100100 3
b10 l
b0 ;
b0 =
b1 ?
b100 G
b10010000001000101111111111111110 )
b10010000001000101111111111111110 7
b10010000001000101111111111111110 i
b100 j
b101 (
b101 5
b101 r
b101 K
b101 J
b11 I
b1 N
b1 \
b1 2
b11 :
b101 4
b100 '
b100 0
b100 s
b1 %
b1 .
b1 n
1!
#2200
0!
#2250
b1 Y
b1 ]
b1 a
b1 e
b1 6
b110 ?
b0 A
b11111 @
b11111 Q
b110 P
b101000 O
b101000 W
1q
b0 #
b0 +
b0 o
b0 V
b0 S
b0 U
b0 T
b101000 R
b110 H
b0 N
b101000 L
b0 \
b110 2
b11111111111111111111111111111111 $
b11111111111111111111111111111111 -
b11111111111111111111111111111111 p
b11111111111111111111111111111111 C
b110 E
b11111111111111111111111111111111 B
b101000 F
b110 <
b110 8
b110 1
b0 ,
b101000 3
b0 %
b0 .
b0 n
b0 l
b0 k
b11111111111111111111111111111111 ;
b11111111111111111111111111111111 =
b0 >
b110 (
b110 5
b110 r
b110 K
b110 J
b1100 I
b0 M
b101 G
b10100000000000000000000000000110 )
b10100000000000000000000000000110 7
b10100000000000000000000000000110 i
b101 j
b0 &
b0 /
b0 m
b1100 :
b110 4
b101 '
b101 0
b101 s
1!
#2300
0!
#2350
b110111 $
b110111 -
b110111 p
b110111 C
b110111 B
b110111 ;
b110111 =
b0 ?
b0 @
b1101 Y
b1101 ]
b1101 a
b1101 e
b0 2
b0 Q
b0 P
b1 O
b1 W
0q
b11 #
b11 +
b11 o
b11 V
b11 U
b11 T
b1 R
b0 E
b1 F
b110111 \
b111 (
b111 5
b111 r
b111 K
b11000110000000000000000 H
b110111 N
b110111 M
b1 L
b1101 6
b110111 >
b11000110000000000000000 <
b0 8
b0 1
b1 3
b110111 %
b110111 .
b110111 n
b11 l
b110111 &
b110111 /
b110111 m
b11 k
b111 J
b111 I
b110 G
b100011000110000000000000000 )
b100011000110000000000000000 7
b100011000110000000000000000 i
b110 j
b111 :
b111 4
b110 '
b110 0
b110 s
1!
#2400
0!
#2450
bx ?
b11111 @
bx Y
bx ]
bx a
bx e
bx 2
b11111 Q
bx P
bx O
bx W
1q
b0 #
b0 +
b0 o
b0 V
bx S
bx U
bx T
bx R
b11111111111111111111111111111111 $
b11111111111111111111111111111111 -
b11111111111111111111111111111111 p
b11111111111111111111111111111111 C
bx E
b11111111111111111111111111111111 B
bx F
bx h
bx d
bx `
bx \
b0xxxxxxxxxxxxxxxxxxxxxxxxxx H
bx N
bx M
bx L
b0xxxxxxxxxxxxxxxxxxxxxxxxxxxxxx 6
b11111111111111111111111111111111 ;
b11111111111111111111111111111111 =
bx >
bx A
bx <
bx 8
bx 1
bx ,
bx 3
bx %
bx .
bx n
bx l
bx &
bx /
bx m
bx k
b1000 (
b1000 5
b1000 r
b1000 K
b1000 J
bx I
b111 G
bx )
bx 7
bx i
b111 j
bx :
b1000 4
b111 '
b111 0
b111 s
1!
#2500
0!
#2550
b1001 (
b1001 5
b1001 r
b1001 K
b1001 J
b1000 G
b1000 j
b1001 4
b1000 '
b1000 0
b1000 s
1!
#2600
0!
#2650
b1010 (
b1010 5
b1010 r
b1010 K
b1010 J
b1001 G
b1001 j
b1010 4
b1001 '
b1001 0
b1001 s
1!
#2700
0!
#2750
b1011 (
b1011 5
b1011 r
b1011 K
b1011 J
b1010 G
b1010 j
b1011 4
b1010 '
b1010 0
b1010 s
1!
#2800
0!
#2850
b1100 (
b1100 5
b1100 r
b1100 K
b1100 J
b1011 G
b1011 j
b1100 4
b1011 '
b1011 0
b1011 s
1!
#2900
0!
#2950
b1101 (
b1101 5
b1101 r
b1101 K
b1101 J
b1100 G
b1100 j
b1101 4
b1100 '
b1100 0
b1100 s
1!
#3000
0!
#3050
b1110 (
b1110 5
b1110 r
b1110 K
b1110 J
b1101 G
b1101 j
b1110 4
b1101 '
b1101 0
b1101 s
1!
#3100
0!
#3150
b1111 (
b1111 5
b1111 r
b1111 K
b1111 J
b1110 G
b1110 j
b1111 4
b1110 '
b1110 0
b1110 s
1!
#3200
0!
#3250
b10000 (
b10000 5
b10000 r
b10000 K
b10000 J
b1111 G
b1111 j
b10000 4
b1111 '
b1111 0
b1111 s
1!
#3300
0!
#3350
b10001 (
b10001 5
b10001 r
b10001 K
b10001 J
b10000 G
b10000 j
b10001 4
b10000 '
b10000 0
b10000 s
1!
#3400
0!
#3450
b10010 (
b10010 5
b10010 r
b10010 K
b10010 J
b10001 G
b10001 j
b10010 4
b10001 '
b10001 0
b10001 s
1!
#3500
0!
#3550
b10011 (
b10011 5
b10011 r
b10011 K
b10011 J
b10010 G
b10010 j
b10011 4
b10010 '
b10010 0
b10010 s
1!
#3600
0!
#3650
b10100 (
b10100 5
b10100 r
b10100 K
b10100 J
b10011 G
b10011 j
b10100 4
b10011 '
b10011 0
b10011 s
1!
#3700
0!
#3750
b10101 (
b10101 5
b10101 r
b10101 K
b10101 J
b10100 G
b10100 j
b10101 4
b10100 '
b10100 0
b10100 s
1!
#3800
0!
#3850
b10110 (
b10110 5
b10110 r
b10110 K
b10110 J
b10101 G
b10101 j
b10110 4
b10101 '
b10101 0
b10101 s
1!
#3900
0!
#3950
b10111 (
b10111 5
b10111 r
b10111 K
b10111 J
b10110 G
b10110 j
b10111 4
b10110 '
b10110 0
b10110 s
1!
#4000
0!
#4050
b11000 (
b11000 5
b11000 r
b11000 K
b11000 J
b10111 G
b10111 j
b11000 4
b10111 '
b10111 0
b10111 s
1!
#4100
0!
#4150
b11001 (
b11001 5
b11001 r
b11001 K
b11001 J
b11000 G
b11000 j
b11001 4
b11000 '
b11000 0
b11000 s
1!
#4200
0!
#4250
b11010 (
b11010 5
b11010 r
b11010 K
b11010 J
b11001 G
b11001 j
b11010 4
b11001 '
b11001 0
b11001 s
1!
#4300
0!
#4350
b11011 (
b11011 5
b11011 r
b11011 K
b11011 J
b11010 G
b11010 j
b11011 4
b11010 '
b11010 0
b11010 s
1!
#4400
0!
#4450
b11100 (
b11100 5
b11100 r
b11100 K
b11100 J
b11011 G
b11011 j
b11100 4
b11011 '
b11011 0
b11011 s
1!
#4500
0!
#4550
b11101 (
b11101 5
b11101 r
b11101 K
b11101 J
b11100 G
b11100 j
b11101 4
b11100 '
b11100 0
b11100 s
1!
#4600
0!
#4650
b11110 (
b11110 5
b11110 r
b11110 K
b11110 J
b11101 G
b11101 j
b11110 4
b11101 '
b11101 0
b11101 s
1!
#4700
0!
#4750
b11111 (
b11111 5
b11111 r
b11111 K
b11111 J
b11110 G
b11110 j
b11111 4
b11110 '
b11110 0
b11110 s
1!
#4800
0!
#4850
b100000 (
b100000 5
b100000 r
b100000 K
b100000 J
b11111 G
b11111 j
b100000 4
b11111 '
b11111 0
b11111 s
1!
#4900
0!
#4950
b100001 (
b100001 5
b100001 r
b100001 K
b100001 J
b100000 G
b100000 j
b100001 4
b100000 '
b100000 0
b100000 s
1!
#5000
0!
#5050
b100010 (
b100010 5
b100010 r
b100010 K
b100010 J
b100001 G
b100001 j
b100010 4
b100001 '
b100001 0
b100001 s
1!
#5100
0!
#5150
b100011 (
b100011 5
b100011 r
b100011 K
b100011 J
b100010 G
b100010 j
b100011 4
b100010 '
b100010 0
b100010 s
1!
#5200
0!
#5250
b100100 (
b100100 5
b100100 r
b100100 K
b100100 J
b100011 G
b100011 j
b100100 4
b100011 '
b100011 0
b100011 s
1!
#5300
0!
#5350
b100101 (
b100101 5
b100101 r
b100101 K
b100101 J
b100100 G
b100100 j
b100101 4
b100100 '
b100100 0
b100100 s
1!
#5400
0!
#5450
b100110 (
b100110 5
b100110 r
b100110 K
b100110 J
b100101 G
b100101 j
b100110 4
b100101 '
b100101 0
b100101 s
1!
#5500
0!
#5550
b100111 (
b100111 5
b100111 r
b100111 K
b100111 J
b100110 G
b100110 j
b100111 4
b100110 '
b100110 0
b100110 s
1!
#5600
0!
